{
  "devOptions": {
    "port": 8443
  },
  "extends": "@snowpack/app-scripts-react",
  "exclude": ["node_modules/**/*", "_*/*"],
  "mount": {
    "_public": "/",
    "src": "/_dist_"
  },

  "plugins": [
    [
      "@snowpack/plugin-run-script",
      { "cmd": "eleventy", "watch": "$1 --watch" }
    ]
  ]
}
